<UNITS>  ft
<INTEG_AXIS>  X
<SYMM>  N
<STRAKES>  32

<STA_COORD>  -38.746
<STK_COORDS>
0.0    0.0
0.0    0.0
0.0    0.0
0.0    0.0
0.0    0.0
0.0    0.0
0.0    0.0
0.0    0.0
0.0    0.0
0.0    0.0
0.0    0.0
0.0    0.0
0.0    0.0
0.0    0.0
0.0    0.0
0.0    0.0
0.0    0.0
0.0    0.0
0.0    0.0
0.0    0.0
0.0    0.0
0.0    0.0
0.0    0.0
0.0    0.0
0.0    0.0
0.0    0.0
0.0    0.0
0.0    0.0
0.0    0.0
0.0    0.0
0.0    0.0
0.0    0.0

<STA_COORD>  -38.746
<STK_COORDS>
1.05    0.0
1.0270549    0.21830738
0.9592227    0.42707342
0.8494678    0.61717445
0.70258707    0.780302
0.5249999    0.9093267
0.3244678    0.99860924
0.10975484    1.044248
-0.10975493    1.044248
-0.32446787    0.99860924
-0.52500004    0.90932655
-0.7025872    0.7803019
-0.8494679    0.6171744
-0.9592228    0.42707327
-1.0270549    0.21830738
-1.05    0.0
-1.05    0.0
-1.0270549    -0.21830738
-0.9592228    -0.42707327
-0.8494679    -0.6171744
-0.7025872    -0.7803019
-0.52500004    -0.90932655
-0.32446787    -0.99860924
-0.10975493    -1.044248
0.10975484    -1.044248
0.3244678    -0.99860924
0.5249999    -0.9093267
0.70258707    -0.780302
0.8494678    -0.61717445
0.9592227    -0.42707342
1.0270549    -0.21830738
1.05    0.0

<STA_COORD>  -16.746
<STK_COORDS>
1.05    0.0
1.0270549    0.21830738
0.9592227    0.42707342
0.8494678    0.61717445
0.70258707    0.780302
0.5249999    0.9093267
0.3244678    0.99860924
0.10975484    1.044248
-0.10975493    1.044248
-0.32446787    0.99860924
-0.52500004    0.90932655
-0.7025872    0.7803019
-0.8494679    0.6171744
-0.9592228    0.42707327
-1.0270549    0.21830738
-1.05    0.0
-1.05    0.0
-1.0270549    -0.21830738
-0.9592228    -0.42707327
-0.8494679    -0.6171744
-0.7025872    -0.7803019
-0.52500004    -0.90932655
-0.32446787    -0.99860924
-0.10975493    -1.044248
0.10975484    -1.044248
0.3244678    -0.99860924
0.5249999    -0.9093267
0.70258707    -0.780302
0.8494678    -0.61717445
0.9592227    -0.42707342
1.0270549    -0.21830738
1.05    0.0

<STA_COORD>  -16.746
<STK_COORDS>
1.3    0.0
1.2715919    0.27028477
1.187609    0.52875775
1.051722    0.76412076
0.8698697    0.9660883
0.6499999    1.125833
0.40172204    1.2363734
0.13588694    1.2928784
-0.13588706    1.2928784
-0.40172213    1.2363734
-0.65000004    1.1258329
-0.86986977    0.96608806
-1.0517222    0.76412064
-1.1876091    0.5287576
-1.2715919    0.27028477
-1.3    0.0
-1.3    0.0
-1.2715919    -0.27028477
-1.1876091    -0.5287576
-1.0517222    -0.76412064
-0.86986977    -0.96608806
-0.65000004    -1.1258329
-0.40172213    -1.2363734
-0.13588706    -1.2928784
0.13588694    -1.2928784
0.40172204    -1.2363734
0.6499999    -1.125833
0.8698697    -0.9660883
1.051722    -0.76412076
1.187609    -0.52875775
1.2715919    -0.27028477
1.3    0.0

<STA_COORD>  0.0
<STK_COORDS>
1.6450001    0.0
1.6090528    0.3420149
1.5027822    0.6690818
1.330833    0.96690667
1.1007198    1.2224731
0.82249993    1.4246117
0.5083329    1.5644879
0.17194925    1.6359885
-0.1719494    1.6359885
-0.508333    1.5644879
-0.8225001    1.4246117
-1.1007199    1.2224731
-1.3308331    0.9669065
-1.5027823    0.66908157
-1.6090528    0.3420149
-1.6450001    0.0
-1.6450001    0.0
-1.6090528    -0.3420149
-1.5027823    -0.66908157
-1.3308331    -0.9669065
-1.1007199    -1.2224731
-0.8225001    -1.4246117
-0.508333    -1.5644879
-0.1719494    -1.6359885
0.17194925    -1.6359885
0.5083329    -1.5644879
0.82249993    -1.4246117
1.1007198    -1.2224731
1.330833    -0.96690667
1.5027822    -0.6690818
1.6090528    -0.3420149
1.6450001    0.0

<STA_COORD>  11.642
<STK_COORDS>
1.96    0.0
1.9171693    0.40750685
1.790549    0.797204
1.5856733    1.1520592
1.3114959    1.456564
0.9799999    1.6974099
0.60567325    1.8640708
0.20487571    1.949263
-0.20487589    1.949263
-0.6056734    1.8640708
-0.98000014    1.6974097
-1.3114961    1.4565637
-1.5856735    1.1520591
-1.7905492    0.7972037
-1.9171693    0.40750685
-1.96    0.0
-1.96    0.0
-1.9171693    -0.40750685
-1.7905492    -0.7972037
-1.5856735    -1.1520591
-1.3114961    -1.4565637
-0.98000014    -1.6974097
-0.6056734    -1.8640708
-0.20487589    -1.949263
0.20487571    -1.949263
0.60567325    -1.8640708
0.9799999    -1.6974099
1.3114959    -1.456564
1.5856733    -1.1520592
1.790549    -0.797204
1.9171693    -0.40750685
1.96    0.0

<STA_COORD>  11.642
<STK_COORDS>
2.15    0.0
2.1030176    0.44700977
1.9641227    0.8744839
1.7393866    1.2637383
1.4386308    1.5977615
1.0749999    1.8619549
0.6643865    2.0447717
0.22473611    2.1382222
-0.2247363    2.1382222
-0.66438663    2.0447717
-1.0750002    1.8619547
-1.438631    1.5977613
-1.7393868    1.263738
-1.9641229    0.8744836
-2.1030176    0.44700977
-2.15    0.0
-2.15    0.0
-2.1030176    -0.44700977
-1.9641229    -0.8744836
-1.7393868    -1.263738
-1.438631    -1.5977613
-1.0750002    -1.8619547
-0.66438663    -2.0447717
-0.2247363    -2.1382222
0.22473611    -2.1382222
0.6643865    -2.0447717
1.0749999    -1.8619549
1.4386308    -1.5977615
1.7393866    -1.2637383
1.9641227    -0.8744839
2.1030176    -0.44700977
2.15    0.0

<STA_COORD>  13.812
<STK_COORDS>
2.15    0.0
2.1030176    0.44700977
1.9641227    0.8744839
1.7393866    1.2637383
1.4386308    1.5977615
1.0749999    1.8619549
0.6643865    2.0447717
0.22473611    2.1382222
-0.2247363    2.1382222
-0.66438663    2.0447717
-1.0750002    1.8619547
-1.438631    1.5977613
-1.7393868    1.263738
-1.9641229    0.8744836
-2.1030176    0.44700977
-2.15    0.0
-2.15    0.0
-2.1030176    -0.44700977
-1.9641229    -0.8744836
-1.7393868    -1.263738
-1.438631    -1.5977613
-1.0750002    -1.8619547
-0.66438663    -2.0447717
-0.2247363    -2.1382222
0.22473611    -2.1382222
0.6643865    -2.0447717
1.0749999    -1.8619549
1.4386308    -1.5977615
1.7393866    -1.2637383
1.9641227    -0.8744839
2.1030176    -0.44700977
2.15    0.0

<STA_COORD>  13.812
<STK_COORDS>
1.96    0.0
1.9171693    0.40750685
1.790549    0.797204
1.5856733    1.1520592
1.3114959    1.456564
0.9799999    1.6974099
0.60567325    1.8640708
0.20487571    1.949263
-0.20487589    1.949263
-0.6056734    1.8640708
-0.98000014    1.6974097
-1.3114961    1.4565637
-1.5856735    1.1520591
-1.7905492    0.7972037
-1.9171693    0.40750685
-1.96    0.0
-1.96    0.0
-1.9171693    -0.40750685
-1.7905492    -0.7972037
-1.5856735    -1.1520591
-1.3114961    -1.4565637
-0.98000014    -1.6974097
-0.6056734    -1.8640708
-0.20487589    -1.949263
0.20487571    -1.949263
0.60567325    -1.8640708
0.9799999    -1.6974099
1.3114959    -1.456564
1.5856733    -1.1520592
1.790549    -0.797204
1.9171693    -0.40750685
1.96    0.0

<STA_COORD>  14.791999
<STK_COORDS>
1.89    0.0
1.848699    0.392953
1.7266009    0.7687323
1.5290421    1.110914
1.2646568    1.4045438
0.9449999    1.636788
0.5840421    1.7974968
0.19755872    1.8796464
-0.19755888    1.8796464
-0.5840422    1.7974968
-0.9450001    1.6367879
-1.264657    1.4045435
-1.5290422    1.1109139
-1.7266009    0.768732
-1.848699    0.392953
-1.89    0.0
-1.89    0.0
-1.848699    -0.392953
-1.7266009    -0.768732
-1.5290422    -1.1109139
-1.264657    -1.4045435
-0.9450001    -1.6367879
-0.5840422    -1.7974968
-0.19755888    -1.8796464
0.19755872    -1.8796464
0.5840421    -1.7974968
0.9449999    -1.636788
1.2646568    -1.4045438
1.5290421    -1.110914
1.7266009    -0.7687323
1.848699    -0.392953
1.89    0.0

<STA_COORD>  14.791999
<STK_COORDS>
1.05    0.0
1.0270549    0.21830738
0.9592227    0.42707342
0.8494678    0.61717445
0.70258707    0.780302
0.5249999    0.9093267
0.3244678    0.99860924
0.10975484    1.044248
-0.10975493    1.044248
-0.32446787    0.99860924
-0.52500004    0.90932655
-0.7025872    0.7803019
-0.8494679    0.6171744
-0.9592228    0.42707327
-1.0270549    0.21830738
-1.05    0.0
-1.05    0.0
-1.0270549    -0.21830738
-0.9592228    -0.42707327
-0.8494679    -0.6171744
-0.7025872    -0.7803019
-0.52500004    -0.90932655
-0.32446787    -0.99860924
-0.10975493    -1.044248
0.10975484    -1.044248
0.3244678    -0.99860924
0.5249999    -0.9093267
0.70258707    -0.780302
0.8494678    -0.61717445
0.9592227    -0.42707342
1.0270549    -0.21830738
1.05    0.0

<STA_COORD>  15.842
<STK_COORDS>
1.05    0.0
1.0270549    0.21830738
0.9592227    0.42707342
0.8494678    0.61717445
0.70258707    0.780302
0.5249999    0.9093267
0.3244678    0.99860924
0.10975484    1.044248
-0.10975493    1.044248
-0.32446787    0.99860924
-0.52500004    0.90932655
-0.7025872    0.7803019
-0.8494679    0.6171744
-0.9592228    0.42707327
-1.0270549    0.21830738
-1.05    0.0
-1.05    0.0
-1.0270549    -0.21830738
-0.9592228    -0.42707327
-0.8494679    -0.6171744
-0.7025872    -0.7803019
-0.52500004    -0.90932655
-0.32446787    -0.99860924
-0.10975493    -1.044248
0.10975484    -1.044248
0.3244678    -0.99860924
0.5249999    -0.9093267
0.70258707    -0.780302
0.8494678    -0.61717445
0.9592227    -0.42707342
1.0270549    -0.21830738
1.05    0.0

<STA_COORD>  15.842
<STK_COORDS>
0.0    0.0
0.0    0.0
0.0    0.0
0.0    0.0
0.0    0.0
0.0    0.0
0.0    0.0
0.0    0.0
0.0    0.0
0.0    0.0
0.0    0.0
0.0    0.0
0.0    0.0
0.0    0.0
0.0    0.0
0.0    0.0
0.0    0.0
0.0    0.0
0.0    0.0
0.0    0.0
0.0    0.0
0.0    0.0
0.0    0.0
0.0    0.0
0.0    0.0
0.0    0.0
0.0    0.0
0.0    0.0
0.0    0.0
0.0    0.0
0.0    0.0
0.0    0.0
<EOF>
